[
  {
    "email": "rupaul@potus.com",
    "username": "rupaul",
    "firstname": "Rupaul",
    "hash": "$2b$10$B3ot30dz7W7SJhk0VNIxA.nKnjn6GCaTNUB7yNUZJ/diQtSVNW.Qu",
    "preferences": {
      "emailWhenInvitationAccepted": false,
      "emailWhenMessageReceivedOffline": false
    },
    "createdAt": {
      "$date": "2020-01-01T00:00:00.000Z"
    },
    "deleted": false
  },
  {
    "email": "barack.obama@potus.com",
    "username": "barack",
    "firstname": "Barack",
    "hash": "$2b$10$f7Xk84jCy4gB.gErRg/2B.NEi9zhU.QtGiZ3TxLsWHslxexXqQDf6",
    "preferences": {
      "emailWhenInvitationAccepted": false,
      "emailWhenMessageReceivedOffline": false
    },
    "createdAt": {
      "$date": "2020-01-01T00:00:00.000Z"
    },
    "deleted": true
  },
  {
    "email": "alyssa.edwards@potus.com",
    "username": "alyssa",
    "firstname": "Alyssa",
    "hash": "$2b$10$B3ot30dz7W7SJhk0VNIxA.nKnjn6GCaTNUB7yNUZJ/diQtSVNW.Qu",
    "preferences": {
      "emailWhenInvitationAccepted": false,
      "emailWhenMessageReceivedOffline": false
    },
    "createdAt": {
      "$date": "2020-01-01T00:00:00.000Z"
    },
    "deleted": false
  }
]
